…
```
> area_Ha
# A tibble: 450 × 4
   DISTRITO          Category values Unit 
   <chr>             <chr>     <dbl> <chr>
 1 LURIGANCHO        Shrubs    1282. Ha   
 2 JESUS MARIA       Shrubs       0  Ha   
 3 LIMA              Shrubs       0  Ha   
 4 LINCE             Shrubs       0  Ha   
 5 MIRAFLORES        Shrubs       0  Ha   
 6 MAGDALENA DEL MAR Shrubs       0  Ha   
 7 PUEBLO LIBRE      Shrubs       0  Ha   
 8 SAN BORJA         Shrubs       0  Ha   
 9 SAN LUIS          Shrubs       0  Ha   
10 SAN MIGUEL        Shrubs     100  Ha   
# … with 440 more rows
```
…
